
anlalogous blue
#C18CFF
#736CEB
#5D94FF
#6CC7EB
#9CFFF3

shade of blue
#3861C2 rgba(56, 97, 194, 76)
#254080 rgba(37, 64, 128, 50)
#4B81FF rgba(75, 129, 255, 100)
#122040 rgba(18, 32, 64, 25)
#4373E6 rgba(67, 115, 230, 90)